{
  "message": "Popular Playlists",
  "playlists": {
    "href": "https://api.spotify.com/v1/browse/featured-playlists?offset=0&limit=20",
    "items": [
      {
        "collaborative": false,
        "description": "De 50 populairste hits van Nederland. Cover: Roxy Dekker\n",
        "external_urls": {
          "spotify": "https://open.spotify.com/playlist/37i9dQZF1DWSBi5svWQ9Nk"
        },
        "href": "https://api.spotify.com/v1/playlists/37i9dQZF1DWSBi5svWQ9Nk",
        "id": "37i9dQZF1DWSBi5svWQ9Nk",
        "images": [
          {
            "height": null,
            "url": "https://i.scdn.co/image/ab67706f000000028d0a7b59d47c3208d78aec27",
            "width": null
          }
        ],
        "name": "Top Hits NL",
        "owner": {
          "display_name": "Spotify",
          "external_urls": {
            "spotify": "https://open.spotify.com/user/spotify"
          },
          "href": "https://api.spotify.com/v1/users/spotify",
          "id": "spotify",
          "type": "user",
          "uri": "spotify:user:spotify"
        },
        "primary_color": "#C3F0C8",
        "public": true,
        "snapshot_id": "ZhhdYAAAAADPvvKNxsjiWYF7rFf4e3ul",
        "tracks": {
          "href": "https://api.spotify.com/v1/playlists/37i9dQZF1DWSBi5svWQ9Nk/tracks",
          "total": 50
        },
        "type": "playlist",
        "uri": "spotify:playlist:37i9dQZF1DWSBi5svWQ9Nk"
      },
      {
        "collaborative": false,
        "description": "De beste Nederlandse liedjes. Cover: FLEMMING, Zoë Tauran & Ronnie Flex",
        "external_urls": {
          "spotify": "https://open.spotify.com/playlist/37i9dQZF1DXdKMCnEhDnDL"
        },
        "href": "https://api.spotify.com/v1/playlists/37i9dQZF1DXdKMCnEhDnDL",
        "id": "37i9dQZF1DXdKMCnEhDnDL",
        "images": [
          {
            "height": null,
            "url": "https://i.scdn.co/image/ab67706f000000028de9c3b5ea3dd98f72838af5",
            "width": null
          }
        ],
        "name": "Beste van NL",
        "owner": {
          "display_name": "Spotify",
          "external_urls": {
            "spotify": "https://open.spotify.com/user/spotify"
          },
          "href": "https://api.spotify.com/v1/users/spotify",
          "id": "spotify",
          "type": "user",
          "uri": "spotify:user:spotify"
        },
        "primary_color": "#ffffff",
        "public": true,
        "snapshot_id": "Zh5iLQAAAAAcIFWIk/Xz9a2gX2dZqwc3",
        "tracks": {
          "href": "https://api.spotify.com/v1/playlists/37i9dQZF1DXdKMCnEhDnDL/tracks",
          "total": 100
        },
        "type": "playlist",
        "uri": "spotify:playlist:37i9dQZF1DXdKMCnEhDnDL"
      },
      {
        "collaborative": false,
        "description": "De grootste hits uit de kroeg in één playlist.",
        "external_urls": {
          "spotify": "https://open.spotify.com/playlist/37i9dQZF1DWUppGmuwT9c7"
        },
        "href": "https://api.spotify.com/v1/playlists/37i9dQZF1DWUppGmuwT9c7",
        "id": "37i9dQZF1DWUppGmuwT9c7",
        "images": [
          {
            "height": null,
            "url": "https://i.scdn.co/image/ab67706f00000002d59403672aeed868317fe155",
            "width": null
          }
        ],
        "name": "Kroegenhits 2024",
        "owner": {
          "display_name": "Spotify",
          "external_urls": {
            "spotify": "https://open.spotify.com/user/spotify"
          },
          "href": "https://api.spotify.com/v1/users/spotify",
          "id": "spotify",
          "type": "user",
          "uri": "spotify:user:spotify"
        },
        "primary_color": "#ffffff",
        "public": true,
        "snapshot_id": "ZhrGVQAAAACod5/mdT08wrEs37AvMlih",
        "tracks": {
          "href": "https://api.spotify.com/v1/playlists/37i9dQZF1DWUppGmuwT9c7/tracks",
          "total": 80
        },
        "type": "playlist",
        "uri": "spotify:playlist:37i9dQZF1DWUppGmuwT9c7"
      },
      {
        "collaborative": false,
        "description": "Koffie met gemoedelijke muziek op de achtergrond.",
        "external_urls": {
          "spotify": "https://open.spotify.com/playlist/37i9dQZF1DWYPwGkJoztcR"
        },
        "href": "https://api.spotify.com/v1/playlists/37i9dQZF1DWYPwGkJoztcR",
        "id": "37i9dQZF1DWYPwGkJoztcR",
        "images": [
          {
            "height": null,
            "url": "https://i.scdn.co/image/ab67706f0000000258e9793722274f9d7b7e85e6",
            "width": null
          }
        ],
        "name": "'t Koffiehuis",
        "owner": {
          "display_name": "Spotify",
          "external_urls": {
            "spotify": "https://open.spotify.com/user/spotify"
          },
          "href": "https://api.spotify.com/v1/users/spotify",
          "id": "spotify",
          "type": "user",
          "uri": "spotify:user:spotify"
        },
        "primary_color": "#ffffff",
        "public": true,
        "snapshot_id": "Zh64zwAAAABAksfPb7i8UWCFfiWgmmal",
        "tracks": {
          "href": "https://api.spotify.com/v1/playlists/37i9dQZF1DWYPwGkJoztcR/tracks",
          "total": 100
        },
        "type": "playlist",
        "uri": "spotify:playlist:37i9dQZF1DWYPwGkJoztcR"
      },
      {
        "collaborative": false,
        "description": "Lusho op de cover van Woordenschat.",
        "external_urls": {
          "spotify": "https://open.spotify.com/playlist/37i9dQZF1DX19xRtMyA5LM"
        },
        "href": "https://api.spotify.com/v1/playlists/37i9dQZF1DX19xRtMyA5LM",
        "id": "37i9dQZF1DX19xRtMyA5LM",
        "images": [
          {
            "height": null,
            "url": "https://i.scdn.co/image/ab67706f000000025a4fed5cb48131ffbeef2874",
            "width": null
          }
        ],
        "name": "Woordenschat",
        "owner": {
          "display_name": "Spotify",
          "external_urls": {
            "spotify": "https://open.spotify.com/user/spotify"
          },
          "href": "https://api.spotify.com/v1/users/spotify",
          "id": "spotify",
          "type": "user",
          "uri": "spotify:user:spotify"
        },
        "primary_color": "#ffffff",
        "public": true,
        "snapshot_id": "ZhhdYAAAAAC4w3eiDsXomnkxq/Yb50Ob",
        "tracks": {
          "href": "https://api.spotify.com/v1/playlists/37i9dQZF1DX19xRtMyA5LM/tracks",
          "total": 50
        },
        "type": "playlist",
        "uri": "spotify:playlist:37i9dQZF1DX19xRtMyA5LM"
      }
    ],
    "limit": 20,
    "next": "https://api.spotify.com/v1/browse/featured-playlists?offset=20&limit=20",
    "offset": 0,
    "previous": null,
    "total": 100
  }
}